edgepulse/simulation/qsim/edgepulse.msim.vcd
$comment
	File created using the following command:
		vcd file edgepulse.msim.vcd -direction
$end
$date
	Thu Dec 08 14:46:19 2022
$end
$version
	ModelSim Version 2020.1
$end
$timescale
	1ps
$end

$scope module edgepulse_vlg_vec_tst $end
$var reg 1 ! button $end
$var reg 1 " CLK $end
$var reg 1 # CLR $end
$var wire 1 $ pulse $end

$scope module i1 $end
$var wire 1 % gnd $end
$var wire 1 & vcc $end
$var wire 1 ' unknown $end
$var tri1 1 ( devclrn $end
$var tri1 1 ) devpor $end
$var tri1 1 * devoe $end
$var wire 1 + pulse~output_o $end
$var wire 1 , CLK~input_o $end
$var wire 1 - button~input_o $end
$var wire 1 . inst3~combout $end
$var wire 1 / CLR~input_o $end
$var wire 1 0 inst|41~q $end
$var wire 1 1 inst4~combout $end
$var wire 1 2 inst|40~q $end
$upscope $end
$upscope $end
$enddefinitions $end
#0
$dumpvars
0!
0"
0#
0$
0%
1&
x'
1(
1)
1*
0+
0,
0-
0.
0/
00
01
02
$end
#31250
1"
1,
#60000
1#
1/
#62500
0"
0,
#93750
1"
1,
#120000
1!
1-
11
#125000
0"
0,
#156250
1"
1,
12
1+
1$
01
1.
#187500
0"
0,
#218750
1"
1,
10
02
0+
0$
#250000
0"
0,
#281250
1"
1,
#312500
0"
0,
#343750
1"
1,
#375000
0"
0,
#380000
0!
0-
0.
#406250
1"
1,
00
#437500
0"
0,
#468750
1"
1,
#500000
0"
0,
#531250
1"
1,
#562500
0"
0,
#593750
1"
1,
#620000
1!
1-
11
#625000
0"
0,
#656250
1"
1,
12
1+
1$
01
1.
#687500
0"
0,
#718750
1"
1,
10
02
0+
0$
#750000
0"
0,
#781250
1"
1,
#810000
0!
0-
0.
#812500
0"
0,
#843750
1"
1,
00
#875000
0"
0,
#906250
1"
1,
#937500
0"
0,
#968750
1"
1,
